{"Timestamp":"2020-11-19T11:27:13.0448715+00:00","Level":"Warning","MessageTemplate":"Storing keys in a directory '{path}' that may not be persisted outside of the container. Protected data will be unavailable when container is destroyed.","Properties":{"path":"/root/.aspnet/DataProtection-Keys","EventId":{"Id":60},"SourceContext":"Microsoft.AspNetCore.DataProtection.Repositories.FileSystemXmlRepository","MachineName":"null","ThreadId":1,"App Name":"Serilog Web App Sample"}}
{"Timestamp":"2020-11-19T11:27:13.1525331+00:00","Level":"Warning","MessageTemplate":"No XML encryptor configured. Key {KeyId:B} may be persisted to storage in unencrypted form.","Properties":{"KeyId":"e73c2e5c-e3c7-4799-a82d-990d3aaf0462","EventId":{"Id":35},"SourceContext":"Microsoft.AspNetCore.DataProtection.KeyManagement.XmlKeyManager","MachineName":"null","ThreadId":1,"App Name":"Serilog Web App Sample"},"Renderings":{"KeyId":[{"Format":"B","Rendering":"{e73c2e5c-e3c7-4799-a82d-990d3aaf0462}"}]}}
{"Timestamp":"2020-11-19T11:30:27.5785286+00:00","Level":"Error","MessageTemplate":"HTTP {RequestMethod} {RequestPath} responded {StatusCode} in {Elapsed:0.0000} ms","Exception":"System.Data.SqlClient.SqlException (0x80131904): A network-related or instance-specific error occurred while establishing a connection to SQL Server. The server was not found or was not accessible. Verify that the instance name is correct and that SQL Server is configured to allow remote connections. (provider: TCP Provider, error: 40 - Could not open a connection to SQL Server)\n   at System.Data.SqlClient.SqlInternalConnectionTds..ctor(DbConnectionPoolIdentity identity, SqlConnectionString connectionOptions, SqlCredential credential, Object providerInfo, String newPassword, SecureString newSecurePassword, Boolean redirectedUserInstance, SqlConnectionString userConnectionOptions, SessionData reconnectSessionData, Boolean applyTransientFaultHandling, String accessToken)\n   at System.Data.SqlClient.SqlConnectionFactory.CreateConnection(DbConnectionOptions options, DbConnectionPoolKey poolKey, Object poolGroupProviderInfo, DbConnectionPool pool, DbConnection owningConnection, DbConnectionOptions userOptions)\n   at System.Data.ProviderBase.DbConnectionFactory.CreatePooledConnection(DbConnectionPool pool, DbConnection owningObject, DbConnectionOptions options, DbConnectionPoolKey poolKey, DbConnectionOptions userOptions)\n   at System.Data.ProviderBase.DbConnectionPool.CreateObject(DbConnection owningObject, DbConnectionOptions userOptions, DbConnectionInternal oldConnection)\n   at System.Data.ProviderBase.DbConnectionPool.UserCreateRequest(DbConnection owningObject, DbConnectionOptions userOptions, DbConnectionInternal oldConnection)\n   at System.Data.ProviderBase.DbConnectionPool.TryGetConnection(DbConnection owningObject, UInt32 waitForMultipleObjectsTimeout, Boolean allowCreate, Boolean onlyOneCheckConnection, DbConnectionOptions userOptions, DbConnectionInternal& connection)\n   at System.Data.ProviderBase.DbConnectionPool.TryGetConnection(DbConnection owningObject, TaskCompletionSource`1 retry, DbConnectionOptions userOptions, DbConnectionInternal& connection)\n   at System.Data.ProviderBase.DbConnectionFactory.TryGetConnection(DbConnection owningConnection, TaskCompletionSource`1 retry, DbConnectionOptions userOptions, DbConnectionInternal oldConnection, DbConnectionInternal& connection)\n   at System.Data.ProviderBase.DbConnectionInternal.TryOpenConnectionInternal(DbConnection outerConnection, DbConnectionFactory connectionFactory, TaskCompletionSource`1 retry, DbConnectionOptions userOptions)\n   at System.Data.ProviderBase.DbConnectionClosed.TryOpenConnection(DbConnection outerConnection, DbConnectionFactory connectionFactory, TaskCompletionSource`1 retry, DbConnectionOptions userOptions)\n   at System.Data.SqlClient.SqlConnection.TryOpen(TaskCompletionSource`1 retry)\n   at System.Data.SqlClient.SqlConnection.Open()\n   at Dapper.SqlMapper.QueryImpl[T](IDbConnection cnn, CommandDefinition command, Type effectiveType)+MoveNext() in C:\\projects\\dapper\\Dapper\\SqlMapper.cs:line 1079\n   at System.Collections.Generic.List`1..ctor(IEnumerable`1 collection)\n   at System.Linq.Enumerable.ToList[TSource](IEnumerable`1 source)\n   at Dapper.SqlMapper.Query[T](IDbConnection cnn, String sql, Object param, IDbTransaction transaction, Boolean buffered, Nullable`1 commandTimeout, Nullable`1 commandType) in C:\\projects\\dapper\\Dapper\\SqlMapper.cs:line 721\n   at Repository.SqlDataConnector.Read[T](String proc, Object param) in E:\\Full Stack Development\\full_stack\\back_end\\FullStack.Repository\\SqlDataConnector.cs:line 24\n   at Repository.GenderRepo.GetGenders() in E:\\Full Stack Development\\full_stack\\back_end\\FullStack.Repository\\GenderRepo.cs:line 20\n   at API.Controllers.GenderController.GetGenders() in E:\\Full Stack Development\\full_stack\\back_end\\FullStack.API\\Controllers\\GenderController.cs:line 30\n   at lambda_method(Closure , Object , Object[] )\n   at Microsoft.Extensions.Internal.ObjectMethodExecutor.Execute(Object target, Object[] parameters)\n   at Microsoft.AspNetCore.Mvc.Infrastructure.ActionMethodExecutor.SyncActionResultExecutor.Execute(IActionResultTypeMapper mapper, ObjectMethodExecutor executor, Object controller, Object[] arguments)\n   at Microsoft.AspNetCore.Mvc.Infrastructure.ControllerActionInvoker.InvokeActionMethodAsync()\n   at Microsoft.AspNetCore.Mvc.Infrastructure.ControllerActionInvoker.Next(State& next, Scope& scope, Object& state, Boolean& isCompleted)\n   at Microsoft.AspNetCore.Mvc.Infrastructure.ControllerActionInvoker.InvokeNextActionFilterAsync()\n--- End of stack trace from previous location where exception was thrown ---\n   at Microsoft.AspNetCore.Mvc.Infrastructure.ControllerActionInvoker.Rethrow(ActionExecutedContextSealed context)\n   at Microsoft.AspNetCore.Mvc.Infrastructure.ControllerActionInvoker.Next(State& next, Scope& scope, Object& state, Boolean& isCompleted)\n   at Microsoft.AspNetCore.Mvc.Infrastructure.ControllerActionInvoker.InvokeInnerFilterAsync()\n--- End of stack trace from previous location where exception was thrown ---\n   at Microsoft.AspNetCore.Mvc.Infrastructure.ResourceInvoker.<InvokeNextResourceFilter>g__Awaited|24_0(ResourceInvoker invoker, Task lastTask, State next, Scope scope, Object state, Boolean isCompleted)\n   at Microsoft.AspNetCore.Mvc.Infrastructure.ResourceInvoker.Rethrow(ResourceExecutedContextSealed context)\n   at Microsoft.AspNetCore.Mvc.Infrastructure.ResourceInvoker.Next(State& next, Scope& scope, Object& state, Boolean& isCompleted)\n   at Microsoft.AspNetCore.Mvc.Infrastructure.ResourceInvoker.InvokeFilterPipelineAsync()\n--- End of stack trace from previous location where exception was thrown ---\n   at Microsoft.AspNetCore.Mvc.Infrastructure.ResourceInvoker.<InvokeAsync>g__Awaited|17_0(ResourceInvoker invoker, Task task, IDisposable scope)\n   at Microsoft.AspNetCore.Routing.EndpointMiddleware.<Invoke>g__AwaitRequestTask|6_0(Endpoint endpoint, Task requestTask, ILogger logger)\n   at Microsoft.AspNetCore.Authorization.AuthorizationMiddleware.Invoke(HttpContext context)\n   at Microsoft.AspNetCore.Authentication.AuthenticationMiddleware.Invoke(HttpContext context)\n   at Serilog.AspNetCore.RequestLoggingMiddleware.Invoke(HttpContext httpContext)\n   at API.CustomExceptionMiddleware.ErrorHandlingMiddleware.Invoke(HttpContext context) in E:\\Full Stack Development\\full_stack\\back_end\\FullStack.API\\CustomExceptionMiddleware\\ErrorHandlingMiddleware.cs:line 23\nClientConnectionId:00000000-0000-0000-0000-000000000000","Properties":{"RequestMethod":"GET","RequestPath":"/api/Gender","StatusCode":500,"Elapsed":25027.0186,"SourceContext":"Serilog.AspNetCore.RequestLoggingMiddleware","RequestId":"0HM4CFOE5PRAB:0000000F","SpanId":"|e25b2c4a-41d9447b742d13f6.","TraceId":"e25b2c4a-41d9447b742d13f6","ParentId":"","MachineName":"null","ThreadId":17,"App Name":"Serilog Web App Sample"},"Renderings":{"Elapsed":[{"Format":"0.0000","Rendering":"25027.0186"}]}}
{"Timestamp":"2020-11-19T11:30:27.7219908+00:00","Level":"Fatal","MessageTemplate":"Custom Exception Message: {Message} StatusCode: {StatusCode} StackeTrace: {StackTrace}","Properties":{"Message":"A network-related or instance-specific error occurred while establishing a connection to SQL Server. The server was not found or was not accessible. Verify that the instance name is correct and that SQL Server is configured to allow remote connections. (provider: TCP Provider, error: 40 - Could not open a connection to SQL Server)","StatusCode":500,"StackTrace":"   at System.Data.SqlClient.SqlInternalConnectionTds..ctor(DbConnectionPoolIdentity identity, SqlConnectionString connectionOptions, SqlCredential credential, Object providerInfo, String newPassword, SecureString newSecurePassword, Boolean redirectedUserInstance, SqlConnectionString userConnectionOptions, SessionData reconnectSessionData, Boolean applyTransientFaultHandling, String accessToken)\n   at System.Data.SqlClient.SqlConnectionFactory.CreateConnection(DbConnectionOptions options, DbConnectionPoolKey poolKey, Object poolGroupProviderInfo, DbConnectionPool pool, DbConnection owningConnection, DbConnectionOptions userOptions)\n   at System.Data.ProviderBase.DbConnectionFactory.CreatePooledConnection(DbConnectionPool pool, DbConnection owningObject, DbConnectionOptions options, DbConnectionPoolKey poolKey, DbConnectionOptions userOptions)\n   at System.Data.ProviderBase.DbConnectionPool.CreateObject(DbConnection owningObject, DbConnectionOptions userOptions, DbConnectionInternal oldConnection)\n   at System.Data.ProviderBase.DbConnectionPool.UserCreateRequest(DbConnection owningObject, DbConnectionOptions userOptions, DbConnectionInternal oldConnection)\n   at System.Data.ProviderBase.DbConnectionPool.TryGetConnection(DbConnection owningObject, UInt32 waitForMultipleObjectsTimeout, Boolean allowCreate, Boolean onlyOneCheckConnection, DbConnectionOptions userOptions, DbConnectionInternal& connection)\n   at System.Data.ProviderBase.DbConnectionPool.TryGetConnection(DbConnection owningObject, TaskCompletionSource`1 retry, DbConnectionOptions userOptions, DbConnectionInternal& connection)\n   at System.Data.ProviderBase.DbConnectionFactory.TryGetConnection(DbConnection owningConnection, TaskCompletionSource`1 retry, DbConnectionOptions userOptions, DbConnectionInternal oldConnection, DbConnectionInternal& connection)\n   at System.Data.ProviderBase.DbConnectionInternal.TryOpenConnectionInternal(DbConnection outerConnection, DbConnectionFactory connectionFactory, TaskCompletionSource`1 retry, DbConnectionOptions userOptions)\n   at System.Data.ProviderBase.DbConnectionClosed.TryOpenConnection(DbConnection outerConnection, DbConnectionFactory connectionFactory, TaskCompletionSource`1 retry, DbConnectionOptions userOptions)\n   at System.Data.SqlClient.SqlConnection.TryOpen(TaskCompletionSource`1 retry)\n   at System.Data.SqlClient.SqlConnection.Open()\n   at Dapper.SqlMapper.QueryImpl[T](IDbConnection cnn, CommandDefinition command, Type effectiveType)+MoveNext() in C:\\projects\\dapper\\Dapper\\SqlMapper.cs:line 1079\n   at System.Collections.Generic.List`1..ctor(IEnumerable`1 collection)\n   at System.Linq.Enumerable.ToList[TSource](IEnumerable`1 source)\n   at Dapper.SqlMapper.Query[T](IDbConnection cnn, String sql, Object param, IDbTransaction transaction, Boolean buffered, Nullable`1 commandTimeout, Nullable`1 commandType) in C:\\projects\\dapper\\Dapper\\SqlMapper.cs:line 721\n   at Repository.SqlDataConnector.Read[T](String proc, Object param) in E:\\Full Stack Development\\full_stack\\back_end\\FullStack.Repository\\SqlDataConnector.cs:line 24\n   at Repository.GenderRepo.GetGenders() in E:\\Full Stack Development\\full_stack\\back_end\\FullStack.Repository\\GenderRepo.cs:line 20\n   at API.Controllers.GenderController.GetGenders() in E:\\Full Stack Development\\full_stack\\back_end\\FullStack.API\\Controllers\\GenderController.cs:line 30\n   at lambda_method(Closure , Object , Object[] )\n   at Microsoft.Extensions.Internal.ObjectMethodExecutor.Execute(Object target, Object[] parameters)\n   at Microsoft.AspNetCore.Mvc.Infrastructure.ActionMethodExecutor.SyncActionResultExecutor.Execute(IActionResultTypeMapper mapper, ObjectMethodExecutor executor, Object controller, Object[] arguments)\n   at Microsoft.AspNetCore.Mvc.Infrastructure.ControllerActionInvoker.InvokeActionMethodAsync()\n   at Microsoft.AspNetCore.Mvc.Infrastructure.ControllerActionInvoker.Next(State& next, Scope& scope, Object& state, Boolean& isCompleted)\n   at Microsoft.AspNetCore.Mvc.Infrastructure.ControllerActionInvoker.InvokeNextActionFilterAsync()\n--- End of stack trace from previous location where exception was thrown ---\n   at Microsoft.AspNetCore.Mvc.Infrastructure.ControllerActionInvoker.Rethrow(ActionExecutedContextSealed context)\n   at Microsoft.AspNetCore.Mvc.Infrastructure.ControllerActionInvoker.Next(State& next, Scope& scope, Object& state, Boolean& isCompleted)\n   at Microsoft.AspNetCore.Mvc.Infrastructure.ControllerActionInvoker.InvokeInnerFilterAsync()\n--- End of stack trace from previous location where exception was thrown ---\n   at Microsoft.AspNetCore.Mvc.Infrastructure.ResourceInvoker.<InvokeNextResourceFilter>g__Awaited|24_0(ResourceInvoker invoker, Task lastTask, State next, Scope scope, Object state, Boolean isCompleted)\n   at Microsoft.AspNetCore.Mvc.Infrastructure.ResourceInvoker.Rethrow(ResourceExecutedContextSealed context)\n   at Microsoft.AspNetCore.Mvc.Infrastructure.ResourceInvoker.Next(State& next, Scope& scope, Object& state, Boolean& isCompleted)\n   at Microsoft.AspNetCore.Mvc.Infrastructure.ResourceInvoker.InvokeFilterPipelineAsync()\n--- End of stack trace from previous location where exception was thrown ---\n   at Microsoft.AspNetCore.Mvc.Infrastructure.ResourceInvoker.<InvokeAsync>g__Awaited|17_0(ResourceInvoker invoker, Task task, IDisposable scope)\n   at Microsoft.AspNetCore.Routing.EndpointMiddleware.<Invoke>g__AwaitRequestTask|6_0(Endpoint endpoint, Task requestTask, ILogger logger)\n   at Microsoft.AspNetCore.Authorization.AuthorizationMiddleware.Invoke(HttpContext context)\n   at Microsoft.AspNetCore.Authentication.AuthenticationMiddleware.Invoke(HttpContext context)\n   at Serilog.AspNetCore.RequestLoggingMiddleware.Invoke(HttpContext httpContext)\n   at API.CustomExceptionMiddleware.ErrorHandlingMiddleware.Invoke(HttpContext context) in E:\\Full Stack Development\\full_stack\\back_end\\FullStack.API\\CustomExceptionMiddleware\\ErrorHandlingMiddleware.cs:line 23","RequestId":"0HM4CFOE5PRAB:0000000F","RequestPath":"/api/Gender","SpanId":"|e25b2c4a-41d9447b742d13f6.","TraceId":"e25b2c4a-41d9447b742d13f6","ParentId":"","MachineName":"null","ThreadId":17,"App Name":"Serilog Web App Sample"}}
